Joining Data in R with dplyr · Ethan Chan
…
.x is the variable name from x that you want to join with y on.

.y is the variable name from y that you want to join with x on.

For more documentation, check out the documentation on join.

Fortunately, the variable names representing carrier are the same in flights and airlines. This may not always be the case, but you can join data together using different variable names if you have to!

Let’s take a look at our flightsJoined dataset

flightsJoined %>%
  select(carrier, name, flight, origin, dest) #selecting a subset of variables from flightsJoined

# # A tibble: 336,776 x 5
#    carrier name                     flight origin dest 
#    <chr>   <chr>                     <int> <chr>  <chr>
#  1 UA      United Air Lines Inc.      1545 EWR    IAH  
#  2 UA      United Air Lines Inc.      1714 LGA    IAH  
#  3 AA      American Airlines Inc.     1141 JFK    MIA  
#  4 B6      JetBlue Airways             725 JFK    BQN  
#  5 DL      Delta Air Lines Inc.        461 LGA    ATL  
#  6 UA      United Air Lines Inc.      1696 EWR    ORD  
#  7 B6      JetBlue Airways             507 EWR    FLL  
#  8 EV      ExpressJet Airlines Inc.   5708 LGA    IAD  
#  9 B6      JetBlue Airways              79 JFK    MCO  
# 10 AA      American Airlines Inc.      301 LGA    ORD  
# # ... with 336,766 more rows
…
